module gitlab.com/lixianwei/pubsub

go 1.13

require (
	github.com/gorilla/context v1.1.1 // indirect
	github.com/gorilla/mux v1.7.3 // indirect
	github.com/gorilla/pat v1.0.1
	github.com/gorilla/websocket v1.4.1
	github.com/rs/zerolog v1.16.0
)
